    Dimension: 0
    [0.0, 0.16)
    [0.0, 0.2)
    [0.0, 0.64)
    [0.0, 0.64)
    [0.0, 0.92)
    [0.0, 1.0)
    [0.0, 1.2)
    [0.0, 1.28)
    [0.0, 1.32)
    [0.0, 1.48)
    [0.0, 1.52)
    [0.0, 1.6400000000000001)
    [0.0, 1.96)
    [0.0, 2.2)
    [0.0, 2.2)
    [0.0, 2.32)
    [0.0, 2.36)
    [0.0, 2.48)
    [0.0, 2.84)
    [0.0, infinity)
    Dimension: 1
    [1.24, 1.28)
    [3.92, infinity)
    [3.52, infinity)